# US elections 2020
## @kjhealy

- Results as of YYYY_MM_DD_HH_MM_SS timestamp in file title. Not final.
- NB: The unit of observation in these rows varies. President, Senate and Governor races are reported at the level of (a) the state _and_ (b) some sub-state place unit, which will usually be county but may be a township or similar place. Setting the state-level totals aside, the smaller unit is _either_ a county or something like a township. A variable (`fips5`) is provided that classifies places by their county FIPS. Votes are not reported more than once, however. So, again excluding state totals first, within any given state summing votes across `id` should yield the same total as summing them by `fips5` and then summing those totals. 

- For example, for Massachusetts:

``` r
results_df %>% 
  filter(race == "President", id != "0", fips_char == "25", mpc == "1") %>% 
  select(race, id, fips_char, fips5,  place, lname, votes)

## A tibble: 702 x 7
#   race      id         fips_char fips5 place      lname votes
#   <chr>     <chr>      <chr>     <chr> <chr>      <chr> <int>
# 1 President 2500103690 25        25001 Barnstable Biden 15685
# 2 President 2500103690 25        25001 Barnstable Trump 10824
# 3 President 2500107175 25        25001 Bourne     Biden  5988
# 4 President 2500107175 25        25001 Bourne     Trump  5026
# 5 President 2500107980 25        25001 Brewster   Biden  4905
# 6 President 2500107980 25        25001 Brewster   Trump  2334
# 7 President 2500112995 25        25001 Chatham    Biden  3043
# 8 President 2500112995 25        25001 Chatham    Trump  1827
# 9 President 2500116775 25        25001 Dennis     Biden  6179
#10 President 2500116775 25        25001 Dennis     Trump  3934
# … with 692 more rows
…
```

``` r

## Aggregate by county FIPS and merge county names.

results_df %>% 
  filter(race == "President", id != "0", fips_char == "25", mpc == "1") %>% 
  select(race, id, fips_char, fips5,  place, lname, votes) %>% 
  group_by(fips5, lname) %>%  # Group by county fips
  summarize(votes = sum(votes)) %>% 
  left_join(tmp, by = "fips5")
  
# # A tibble: 28 x 5
# # Groups:   fips5 [14]
#    fips5 lname  votes name              state
#    <chr> <chr>  <int> <chr>             <fct>
#  1 25001 Biden  89732 Barnstable County MA   
#  2 25001 Trump  54132 Barnstable County MA   
#  3 25003 Biden  41521 Berkshire County  MA   
#  4 25003 Trump  14015 Berkshire County  MA   
#  5 25005 Biden 150063 Bristol County    MA   
#  6 25005 Trump 118085 Bristol County    MA   
#  7 25007 Biden   9762 Dukes County      MA   
#  8 25007 Trump   2587 Dukes County      MA   
#  9 25009 Biden 259792 Essex County      MA   
# 10 25009 Trump 141135 Essex County      MA   
# # … with 18 more rows  
#   
```
…
